2022/04/11 15:15:54 Micro started
2022/04/11 15:15:54 monokai-dark is not a plugin
2022/04/11 15:15:54 real runtime file terraform
2022/04/11 15:15:54 editorconfig log: Running on file /home/arno/docker/tp_devops/Jenkins-docker/ReadMe-Jenkins
2022/04/11 15:15:54 editorconfig log: editorconfig core output: 

2022/04/11 15:15:54 editorconfig log: Done.
2022/04/11 15:16:01 snippets-plugin -> function onBeforeTextEvent(ev) = userdata: 0xc00084cff0
2022/04/11 15:16:01 snippets-plugin -> function onBeforeTextEvent(ev) = userdata: 0xc00084d0b0
2022/04/11 15:16:03 real runtime file terraform
2022/04/11 15:16:03 real runtime file syntax
2022/04/11 15:16:03 editorconfig log: Running on file /home/arno/docker/tp_devops/Jenkins-docker/ReadMe-Jenkins
2022/04/11 15:16:03 editorconfig log: editorconfig core output: 

2022/04/11 15:16:03 editorconfig log: Done.
